Bayesian Analysis of Noisy Categorical Ratings
…
---

## The problem

So we have: 

```r
skin_ratings
#> # A tibble: 238 x 5
#>   rater_1 rater_2 rater_3 rater_4 rater_5
#>     <dbl>   <dbl>   <dbl>   <dbl>   <dbl>
#> 1       1       2       1       2       1
#> 2      NA       3       3       2      NA
#> 3       4       4      NA       5       5
#> # … with 235 more rows
```
…
